%YAML 1.1
%TAG !u! tag:unity3d.com,2011:
--- !u!21 &2100000
Material:
  serializedVersion: 6
  m_ObjectHideFlags: 0
  m_PrefabParentObject: {fileID: 0}
  m_PrefabInternal: {fileID: 0}
  m_Name: SpriteDegrade 1
  m_Shader: {fileID: 4800000, guid: f5f45c27a67b6ce4389b259251bf15a8, type: 3}
  m_ShaderKeywords: ETC1_EXTERNAL_ALPHA
  m_LightmapFlags: 4
  m_EnableInstancingVariants: 0
  m_DoubleSidedGI: 0
  m_CustomRenderQueue: -1
  stringTagMap: {}
  disabledShaderPasses: []
  m_SavedProperties:
    serializedVersion: 3
    m_TexEnvs:
    - _ColorTex:
        m_Texture: {fileID: 2800000, guid: 778263eabd36935438ddc4729b3d9e50, type: 3}
        m_Scale: {x: 1, y: 1}
        m_Offset: {x: 0, y: 0}
    - _MainTex:
        m_Texture: {fileID: 2800000, guid: bedd47e1164ccf6419e45f7e7ac3c1d8, type: 3}
        m_Scale: {x: 1, y: 1}
        m_Offset: {x: 0, y: 0}
    - _ShapeTexture:
        m_Texture: {fileID: 2800000, guid: 8fff88daf5a9c1642ade91f31f8f51ad, type: 3}
        m_Scale: {x: 1, y: 1}
        m_Offset: {x: 0, y: 0}
    - _TransitionTex:
        m_Texture: {fileID: 2800000, guid: 519c6111aac33cc438aa8d0fe8257b21, type: 3}
        m_Scale: {x: 1, y: 1}
        m_Offset: {x: 0, y: 0}
    m_Floats:
    - _Cutoff: 1
    - _HSpeedL: -0.1
    - _HSpeedR: -0.2
    - _Speed: -0.05
    m_Colors:
    - _Color: {r: 1, g: 1, b: 1, a: 1}
    - _MaskColor: {r: 1, g: 1, b: 1, a: 1}
