%YAML 1.1
%TAG !u! tag:unity3d.com,2011:
--- !u!29 &1
OcclusionCullingSettings:
  m_ObjectHideFlags: 0
  serializedVersion: 2
  m_OcclusionBakeSettings:
    smallestOccluder: 5
    smallestHole: 0.25
    backfaceThreshold: 100
  m_SceneGUID: 00000000000000000000000000000000
  m_OcclusionCullingData: {fileID: 0}
--- !u!104 &2
RenderSettings:
  m_ObjectHideFlags: 0
  serializedVersion: 8
  m_Fog: 0
  m_FogColor: {r: 0.5, g: 0.5, b: 0.5, a: 1}
  m_FogMode: 3
  m_FogDensity: 0.01
  m_LinearFogStart: 0
  m_LinearFogEnd: 300
  m_AmbientSkyColor: {r: 0.212, g: 0.227, b: 0.259, a: 1}
  m_AmbientEquatorColor: {r: 0.114, g: 0.125, b: 0.133, a: 1}
  m_AmbientGroundColor: {r: 0.047, g: 0.043, b: 0.035, a: 1}
  m_AmbientIntensity: 1
  m_AmbientMode: 3
  m_SubtractiveShadowColor: {r: 0.42, g: 0.478, b: 0.627, a: 1}
  m_SkyboxMaterial: {fileID: 0}
  m_HaloStrength: 0.5
  m_FlareStrength: 1
  m_FlareFadeSpeed: 3
  m_HaloTexture: {fileID: 0}
  m_SpotCookie: {fileID: 10001, guid: 0000000000000000e000000000000000, type: 0}
  m_DefaultReflectionMode: 0
  m_DefaultReflectionResolution: 128
  m_ReflectionBounces: 1
  m_ReflectionIntensity: 1
  m_CustomReflection: {fileID: 0}
  m_Sun: {fileID: 0}
  m_IndirectSpecularColor: {r: 0, g: 0, b: 0, a: 1}
--- !u!157 &3
LightmapSettings:
  m_ObjectHideFlags: 0
  serializedVersion: 11
  m_GIWorkflowMode: 1
  m_GISettings:
    serializedVersion: 2
    m_BounceScale: 1
    m_IndirectOutputScale: 1
    m_AlbedoBoost: 1
    m_TemporalCoherenceThreshold: 1
    m_EnvironmentLightingMode: 0
    m_EnableBakedLightmaps: 0
    m_EnableRealtimeLightmaps: 0
  m_LightmapEditorSettings:
    serializedVersion: 9
    m_Resolution: 2
    m_BakeResolution: 40
    m_TextureWidth: 1024
    m_TextureHeight: 1024
    m_AO: 0
    m_AOMaxDistance: 1
    m_CompAOExponent: 1
    m_CompAOExponentDirect: 0
    m_Padding: 2
    m_LightmapParameters: {fileID: 0}
    m_LightmapsBakeMode: 1
    m_TextureCompression: 1
    m_FinalGather: 0
    m_FinalGatherFiltering: 1
    m_FinalGatherRayCount: 256
    m_ReflectionCompression: 2
    m_MixedBakeMode: 2
    m_BakeBackend: 0
    m_PVRSampling: 1
    m_PVRDirectSampleCount: 32
    m_PVRSampleCount: 500
    m_PVRBounces: 2
    m_PVRFilterTypeDirect: 0
    m_PVRFilterTypeIndirect: 0
    m_PVRFilterTypeAO: 0
    m_PVRFilteringMode: 1
    m_PVRCulling: 1
    m_PVRFilteringGaussRadiusDirect: 1
    m_PVRFilteringGaussRadiusIndirect: 5
    m_PVRFilteringGaussRadiusAO: 2
    m_PVRFilteringAtrousPositionSigmaDirect: 0.5
    m_PVRFilteringAtrousPositionSigmaIndirect: 2
    m_PVRFilteringAtrousPositionSigmaAO: 1
    m_ShowResolutionOverlay: 1
  m_LightingDataAsset: {fileID: 0}
  m_UseShadowmask: 1
--- !u!196 &4
NavMeshSettings:
  serializedVersion: 2
  m_ObjectHideFlags: 0
  m_BuildSettings:
    serializedVersion: 2
    agentTypeID: 0
    agentRadius: 0.5
    agentHeight: 2
    agentSlope: 45
    agentClimb: 0.4
    ledgeDropHeight: 0
    maxJumpAcrossDistance: 0
    minRegionArea: 2
    manualCellSize: 0
    cellSize: 0.16666667
    manualTileSize: 0
    tileSize: 256
    accuratePlacement: 0
    debug:
      m_Flags: 0
  m_NavMeshData: {fileID: 0}
--- !u!1001 &86850998
Prefab:
  m_ObjectHideFlags: 0
  serializedVersion: 2
  m_Modification:
    m_TransformParent: {fileID: 0}
    m_Modifications:
    - target: {fileID: 4816594423083058, guid: 77e0f8c8847d01a4c886d23f5db2f659, type: 2}
      propertyPath: m_LocalPosition.x
      value: 0
      objectReference: {fileID: 0}
    - target: {fileID: 4816594423083058, guid: 77e0f8c8847d01a4c886d23f5db2f659, type: 2}
      propertyPath: m_LocalPosition.y
      value: 0
      objectReference: {fileID: 0}
    - target: {fileID: 4816594423083058, guid: 77e0f8c8847d01a4c886d23f5db2f659, type: 2}
      propertyPath: m_LocalPosition.z
      value: -5.875
      objectReference: {fileID: 0}
    - target: {fileID: 4816594423083058, guid: 77e0f8c8847d01a4c886d23f5db2f659, type: 2}
      propertyPath: m_LocalRotation.x
      value: 0
      objectReference: {fileID: 0}
    - target: {fileID: 4816594423083058, guid: 77e0f8c8847d01a4c886d23f5db2f659, type: 2}
      propertyPath: m_LocalRotation.y
      value: 0
      objectReference: {fileID: 0}
    - target: {fileID: 4816594423083058, guid: 77e0f8c8847d01a4c886d23f5db2f659, type: 2}
      propertyPath: m_LocalRotation.z
      value: 0
      objectReference: {fileID: 0}
    - target: {fileID: 4816594423083058, guid: 77e0f8c8847d01a4c886d23f5db2f659, type: 2}
      propertyPath: m_LocalRotation.w
      value: 1
      objectReference: {fileID: 0}
    - target: {fileID: 4816594423083058, guid: 77e0f8c8847d01a4c886d23f5db2f659, type: 2}
      propertyPath: m_RootOrder
      value: 4
      objectReference: {fileID: 0}
    - target: {fileID: 1855661214798808, guid: 77e0f8c8847d01a4c886d23f5db2f659, type: 2}
      propertyPath: m_IsActive
      value: 0
      objectReference: {fileID: 0}
    m_RemovedComponents: []
  m_ParentPrefab: {fileID: 100100000, guid: 77e0f8c8847d01a4c886d23f5db2f659, type: 2}
  m_IsPrefabParent: 0
--- !u!20 &256892404 stripped
Camera:
  m_PrefabParentObject: {fileID: 20197946999752474, guid: fff71056b57c82741a7422f95e873d5a,
    type: 2}
  m_PrefabInternal: {fileID: 1010234200}
--- !u!1001 &363181687
Prefab:
  m_ObjectHideFlags: 0
  serializedVersion: 2
  m_Modification:
    m_TransformParent: {fileID: 0}
    m_Modifications:
    - target: {fileID: 4244209964464650, guid: 8804c90d717cf7d4ab0b3c5f5c1bb032, type: 2}
      propertyPath: m_LocalPosition.x
      value: 0
      objectReference: {fileID: 0}
    - target: {fileID: 4244209964464650, guid: 8804c90d717cf7d4ab0b3c5f5c1bb032, type: 2}
      propertyPath: m_LocalPosition.y
      value: 0
      objectReference: {fileID: 0}
    - target: {fileID: 4244209964464650, guid: 8804c90d717cf7d4ab0b3c5f5c1bb032, type: 2}
      propertyPath: m_LocalPosition.z
      value: -5.875
      objectReference: {fileID: 0}
    - target: {fileID: 4244209964464650, guid: 8804c90d717cf7d4ab0b3c5f5c1bb032, type: 2}
      propertyPath: m_LocalRotation.x
      value: 0
      objectReference: {fileID: 0}
    - target: {fileID: 4244209964464650, guid: 8804c90d717cf7d4ab0b3c5f5c1bb032, type: 2}
      propertyPath: m_LocalRotation.y
      value: 0
      objectReference: {fileID: 0}
    - target: {fileID: 4244209964464650, guid: 8804c90d717cf7d4ab0b3c5f5c1bb032, type: 2}
      propertyPath: m_LocalRotation.z
      value: 0
      objectReference: {fileID: 0}
    - target: {fileID: 4244209964464650, guid: 8804c90d717cf7d4ab0b3c5f5c1bb032, type: 2}
      propertyPath: m_LocalRotation.w
      value: 1
      objectReference: {fileID: 0}
    - target: {fileID: 4244209964464650, guid: 8804c90d717cf7d4ab0b3c5f5c1bb032, type: 2}
      propertyPath: m_RootOrder
      value: 8
      objectReference: {fileID: 0}
    - target: {fileID: 1285307426848634, guid: 8804c90d717cf7d4ab0b3c5f5c1bb032, type: 2}
      propertyPath: m_IsActive
      value: 0
      objectReference: {fileID: 0}
    m_RemovedComponents: []
  m_ParentPrefab: {fileID: 100100000, guid: 8804c90d717cf7d4ab0b3c5f5c1bb032, type: 2}
  m_IsPrefabParent: 0
--- !u!1001 &631507559
Prefab:
  m_ObjectHideFlags: 0
  serializedVersion: 2
  m_Modification:
    m_TransformParent: {fileID: 0}
    m_Modifications:
    - target: {fileID: 4233938294099008, guid: d743dc9cdb65b8c4c86992784c9a1fae, type: 2}
      propertyPath: m_LocalPosition.x
      value: 0
      objectReference: {fileID: 0}
    - target: {fileID: 4233938294099008, guid: d743dc9cdb65b8c4c86992784c9a1fae, type: 2}
      propertyPath: m_LocalPosition.y
      value: 0
      objectReference: {fileID: 0}
    - target: {fileID: 4233938294099008, guid: d743dc9cdb65b8c4c86992784c9a1fae, type: 2}
      propertyPath: m_LocalPosition.z
      value: -5.875
      objectReference: {fileID: 0}
    - target: {fileID: 4233938294099008, guid: d743dc9cdb65b8c4c86992784c9a1fae, type: 2}
      propertyPath: m_LocalRotation.x
      value: 0
      objectReference: {fileID: 0}
    - target: {fileID: 4233938294099008, guid: d743dc9cdb65b8c4c86992784c9a1fae, type: 2}
      propertyPath: m_LocalRotation.y
      value: 0
      objectReference: {fileID: 0}
    - target: {fileID: 4233938294099008, guid: d743dc9cdb65b8c4c86992784c9a1fae, type: 2}
      propertyPath: m_LocalRotation.z
      value: 0
      objectReference: {fileID: 0}
    - target: {fileID: 4233938294099008, guid: d743dc9cdb65b8c4c86992784c9a1fae, type: 2}
      propertyPath: m_LocalRotation.w
      value: 1
      objectReference: {fileID: 0}
    - target: {fileID: 4233938294099008, guid: d743dc9cdb65b8c4c86992784c9a1fae, type: 2}
      propertyPath: m_RootOrder
      value: 9
      objectReference: {fileID: 0}
    - target: {fileID: 1296732506447860, guid: d743dc9cdb65b8c4c86992784c9a1fae, type: 2}
      propertyPath: m_IsActive
      value: 0
      objectReference: {fileID: 0}
    m_RemovedComponents: []
  m_ParentPrefab: {fileID: 100100000, guid: d743dc9cdb65b8c4c86992784c9a1fae, type: 2}
  m_IsPrefabParent: 0
--- !u!1001 &1010234200
Prefab:
  m_ObjectHideFlags: 0
  serializedVersion: 2
  m_Modification:
    m_TransformParent: {fileID: 0}
    m_Modifications:
    - target: {fileID: 4925641067738550, guid: fff71056b57c82741a7422f95e873d5a, type: 2}
      propertyPath: m_LocalPosition.x
      value: 0
      objectReference: {fileID: 0}
    - target: {fileID: 4925641067738550, guid: fff71056b57c82741a7422f95e873d5a, type: 2}
      propertyPath: m_LocalPosition.y
      value: 0
      objectReference: {fileID: 0}
    - target: {fileID: 4925641067738550, guid: fff71056b57c82741a7422f95e873d5a, type: 2}
      propertyPath: m_LocalPosition.z
      value: 0
      objectReference: {fileID: 0}
    - target: {fileID: 4925641067738550, guid: fff71056b57c82741a7422f95e873d5a, type: 2}
      propertyPath: m_LocalRotation.x
      value: 0
      objectReference: {fileID: 0}
    - target: {fileID: 4925641067738550, guid: fff71056b57c82741a7422f95e873d5a, type: 2}
      propertyPath: m_LocalRotation.y
      value: 0
      objectReference: {fileID: 0}
    - target: {fileID: 4925641067738550, guid: fff71056b57c82741a7422f95e873d5a, type: 2}
      propertyPath: m_LocalRotation.z
      value: 0
      objectReference: {fileID: 0}
    - target: {fileID: 4925641067738550, guid: fff71056b57c82741a7422f95e873d5a, type: 2}
      propertyPath: m_LocalRotation.w
      value: 1
      objectReference: {fileID: 0}
    - target: {fileID: 4925641067738550, guid: fff71056b57c82741a7422f95e873d5a, type: 2}
      propertyPath: m_RootOrder
      value: 0
      objectReference: {fileID: 0}
    - target: {fileID: 1825517598565112, guid: fff71056b57c82741a7422f95e873d5a, type: 2}
      propertyPath: m_IsActive
      value: 0
      objectReference: {fileID: 0}
    m_RemovedComponents: []
  m_ParentPrefab: {fileID: 100100000, guid: fff71056b57c82741a7422f95e873d5a, type: 2}
  m_IsPrefabParent: 0
--- !u!1001 &1012621479
Prefab:
  m_ObjectHideFlags: 0
  serializedVersion: 2
  m_Modification:
    m_TransformParent: {fileID: 0}
    m_Modifications:
    - target: {fileID: 4458502399016160, guid: f52a895a0c849a946aa622b8075a3cbf, type: 2}
      propertyPath: m_LocalPosition.x
      value: 0
      objectReference: {fileID: 0}
    - target: {fileID: 4458502399016160, guid: f52a895a0c849a946aa622b8075a3cbf, type: 2}
      propertyPath: m_LocalPosition.y
      value: 0
      objectReference: {fileID: 0}
    - target: {fileID: 4458502399016160, guid: f52a895a0c849a946aa622b8075a3cbf, type: 2}
      propertyPath: m_LocalPosition.z
      value: -5.875
      objectReference: {fileID: 0}
    - target: {fileID: 4458502399016160, guid: f52a895a0c849a946aa622b8075a3cbf, type: 2}
      propertyPath: m_LocalRotation.x
      value: 0
      objectReference: {fileID: 0}
    - target: {fileID: 4458502399016160, guid: f52a895a0c849a946aa622b8075a3cbf, type: 2}
      propertyPath: m_LocalRotation.y
      value: 0
      objectReference: {fileID: 0}
    - target: {fileID: 4458502399016160, guid: f52a895a0c849a946aa622b8075a3cbf, type: 2}
      propertyPath: m_LocalRotation.z
      value: 0
      objectReference: {fileID: 0}
    - target: {fileID: 4458502399016160, guid: f52a895a0c849a946aa622b8075a3cbf, type: 2}
      propertyPath: m_LocalRotation.w
      value: 1
      objectReference: {fileID: 0}
    - target: {fileID: 4458502399016160, guid: f52a895a0c849a946aa622b8075a3cbf, type: 2}
      propertyPath: m_RootOrder
      value: 2
      objectReference: {fileID: 0}
    - target: {fileID: 1229966036498224, guid: f52a895a0c849a946aa622b8075a3cbf, type: 2}
      propertyPath: m_IsActive
      value: 0
      objectReference: {fileID: 0}
    m_RemovedComponents: []
  m_ParentPrefab: {fileID: 100100000, guid: f52a895a0c849a946aa622b8075a3cbf, type: 2}
  m_IsPrefabParent: 0
--- !u!1001 &1433048647
Prefab:
  m_ObjectHideFlags: 0
  serializedVersion: 2
  m_Modification:
    m_TransformParent: {fileID: 0}
    m_Modifications:
    - target: {fileID: 4619138650240000, guid: 85c0a59d4c814c24e87f6747d1b6734a, type: 2}
      propertyPath: m_LocalPosition.x
      value: 0
      objectReference: {fileID: 0}
    - target: {fileID: 4619138650240000, guid: 85c0a59d4c814c24e87f6747d1b6734a, type: 2}
      propertyPath: m_LocalPosition.y
      value: 0
      objectReference: {fileID: 0}
    - target: {fileID: 4619138650240000, guid: 85c0a59d4c814c24e87f6747d1b6734a, type: 2}
      propertyPath: m_LocalPosition.z
      value: -5.875
      objectReference: {fileID: 0}
    - target: {fileID: 4619138650240000, guid: 85c0a59d4c814c24e87f6747d1b6734a, type: 2}
      propertyPath: m_LocalRotation.x
      value: 0
      objectReference: {fileID: 0}
    - target: {fileID: 4619138650240000, guid: 85c0a59d4c814c24e87f6747d1b6734a, type: 2}
      propertyPath: m_LocalRotation.y
      value: 0
      objectReference: {fileID: 0}
    - target: {fileID: 4619138650240000, guid: 85c0a59d4c814c24e87f6747d1b6734a, type: 2}
      propertyPath: m_LocalRotation.z
      value: 0
      objectReference: {fileID: 0}
    - target: {fileID: 4619138650240000, guid: 85c0a59d4c814c24e87f6747d1b6734a, type: 2}
      propertyPath: m_LocalRotation.w
      value: 1
      objectReference: {fileID: 0}
    - target: {fileID: 4619138650240000, guid: 85c0a59d4c814c24e87f6747d1b6734a, type: 2}
      propertyPath: m_RootOrder
      value: 3
      objectReference: {fileID: 0}
    - target: {fileID: 1027736504826180, guid: 85c0a59d4c814c24e87f6747d1b6734a, type: 2}
      propertyPath: m_IsActive
      value: 0
      objectReference: {fileID: 0}
    - target: {fileID: 1244268195208194, guid: 85c0a59d4c814c24e87f6747d1b6734a, type: 2}
      propertyPath: m_IsActive
      value: 0
      objectReference: {fileID: 0}
    m_RemovedComponents: []
  m_ParentPrefab: {fileID: 100100000, guid: 85c0a59d4c814c24e87f6747d1b6734a, type: 2}
  m_IsPrefabParent: 0
--- !u!1001 &1437114504
Prefab:
  m_ObjectHideFlags: 0
  serializedVersion: 2
  m_Modification:
    m_TransformParent: {fileID: 0}
    m_Modifications:
    - target: {fileID: 4979133927986714, guid: 3e46e38de6888404b9740863a4c2fcbc, type: 2}
      propertyPath: m_LocalPosition.x
      value: 0
      objectReference: {fileID: 0}
    - target: {fileID: 4979133927986714, guid: 3e46e38de6888404b9740863a4c2fcbc, type: 2}
      propertyPath: m_LocalPosition.y
      value: 0
      objectReference: {fileID: 0}
    - target: {fileID: 4979133927986714, guid: 3e46e38de6888404b9740863a4c2fcbc, type: 2}
      propertyPath: m_LocalPosition.z
      value: -5.875
      objectReference: {fileID: 0}
    - target: {fileID: 4979133927986714, guid: 3e46e38de6888404b9740863a4c2fcbc, type: 2}
      propertyPath: m_LocalRotation.x
      value: 0
      objectReference: {fileID: 0}
    - target: {fileID: 4979133927986714, guid: 3e46e38de6888404b9740863a4c2fcbc, type: 2}
      propertyPath: m_LocalRotation.y
      value: 0
      objectReference: {fileID: 0}
    - target: {fileID: 4979133927986714, guid: 3e46e38de6888404b9740863a4c2fcbc, type: 2}
      propertyPath: m_LocalRotation.z
      value: 0
      objectReference: {fileID: 0}
    - target: {fileID: 4979133927986714, guid: 3e46e38de6888404b9740863a4c2fcbc, type: 2}
      propertyPath: m_LocalRotation.w
      value: 1
      objectReference: {fileID: 0}
    - target: {fileID: 4979133927986714, guid: 3e46e38de6888404b9740863a4c2fcbc, type: 2}
      propertyPath: m_RootOrder
      value: 5
      objectReference: {fileID: 0}
    - target: {fileID: 1356190420704206, guid: 3e46e38de6888404b9740863a4c2fcbc, type: 2}
      propertyPath: m_IsActive
      value: 0
      objectReference: {fileID: 0}
    m_RemovedComponents: []
  m_ParentPrefab: {fileID: 100100000, guid: 3e46e38de6888404b9740863a4c2fcbc, type: 2}
  m_IsPrefabParent: 0
--- !u!1001 &1634180253
Prefab:
  m_ObjectHideFlags: 0
  serializedVersion: 2
  m_Modification:
    m_TransformParent: {fileID: 0}
    m_Modifications:
    - target: {fileID: 4092370960876248, guid: 59d82dcdae31eeb4984eca22bff2f349, type: 2}
      propertyPath: m_LocalPosition.x
      value: 0
      objectReference: {fileID: 0}
    - target: {fileID: 4092370960876248, guid: 59d82dcdae31eeb4984eca22bff2f349, type: 2}
      propertyPath: m_LocalPosition.y
      value: 0
      objectReference: {fileID: 0}
    - target: {fileID: 4092370960876248, guid: 59d82dcdae31eeb4984eca22bff2f349, type: 2}
      propertyPath: m_LocalPosition.z
      value: -5.875
      objectReference: {fileID: 0}
    - target: {fileID: 4092370960876248, guid: 59d82dcdae31eeb4984eca22bff2f349, type: 2}
      propertyPath: m_LocalRotation.x
      value: 0
      objectReference: {fileID: 0}
    - target: {fileID: 4092370960876248, guid: 59d82dcdae31eeb4984eca22bff2f349, type: 2}
      propertyPath: m_LocalRotation.y
      value: 0
      objectReference: {fileID: 0}
    - target: {fileID: 4092370960876248, guid: 59d82dcdae31eeb4984eca22bff2f349, type: 2}
      propertyPath: m_LocalRotation.z
      value: 0
      objectReference: {fileID: 0}
    - target: {fileID: 4092370960876248, guid: 59d82dcdae31eeb4984eca22bff2f349, type: 2}
      propertyPath: m_LocalRotation.w
      value: 1
      objectReference: {fileID: 0}
    - target: {fileID: 4092370960876248, guid: 59d82dcdae31eeb4984eca22bff2f349, type: 2}
      propertyPath: m_RootOrder
      value: 7
      objectReference: {fileID: 0}
    - target: {fileID: 1809447561622584, guid: 59d82dcdae31eeb4984eca22bff2f349, type: 2}
      propertyPath: m_IsActive
      value: 0
      objectReference: {fileID: 0}
    m_RemovedComponents: []
  m_ParentPrefab: {fileID: 100100000, guid: 59d82dcdae31eeb4984eca22bff2f349, type: 2}
  m_IsPrefabParent: 0
--- !u!1001 &1812026531
Prefab:
  m_ObjectHideFlags: 0
  serializedVersion: 2
  m_Modification:
    m_TransformParent: {fileID: 0}
    m_Modifications:
    - target: {fileID: 4805339849848704, guid: c8649234c3ac03d419aa93561511c725, type: 2}
      propertyPath: m_LocalPosition.x
      value: 0
      objectReference: {fileID: 0}
    - target: {fileID: 4805339849848704, guid: c8649234c3ac03d419aa93561511c725, type: 2}
      propertyPath: m_LocalPosition.y
      value: 0
      objectReference: {fileID: 0}
    - target: {fileID: 4805339849848704, guid: c8649234c3ac03d419aa93561511c725, type: 2}
      propertyPath: m_LocalPosition.z
      value: -5.875
      objectReference: {fileID: 0}
    - target: {fileID: 4805339849848704, guid: c8649234c3ac03d419aa93561511c725, type: 2}
      propertyPath: m_LocalRotation.x
      value: 0
      objectReference: {fileID: 0}
    - target: {fileID: 4805339849848704, guid: c8649234c3ac03d419aa93561511c725, type: 2}
      propertyPath: m_LocalRotation.y
      value: 0
      objectReference: {fileID: 0}
    - target: {fileID: 4805339849848704, guid: c8649234c3ac03d419aa93561511c725, type: 2}
      propertyPath: m_LocalRotation.z
      value: 0
      objectReference: {fileID: 0}
    - target: {fileID: 4805339849848704, guid: c8649234c3ac03d419aa93561511c725, type: 2}
      propertyPath: m_LocalRotation.w
      value: 1
      objectReference: {fileID: 0}
    - target: {fileID: 4805339849848704, guid: c8649234c3ac03d419aa93561511c725, type: 2}
      propertyPath: m_RootOrder
      value: 6
      objectReference: {fileID: 0}
    - target: {fileID: 1423444309071782, guid: c8649234c3ac03d419aa93561511c725, type: 2}
      propertyPath: m_IsActive
      value: 0
      objectReference: {fileID: 0}
    m_RemovedComponents: []
  m_ParentPrefab: {fileID: 100100000, guid: c8649234c3ac03d419aa93561511c725, type: 2}
  m_IsPrefabParent: 0
--- !u!1001 &2119257721
Prefab:
  m_ObjectHideFlags: 0
  serializedVersion: 2
  m_Modification:
    m_TransformParent: {fileID: 0}
    m_Modifications:
    - target: {fileID: 4586936698077412, guid: 9f41469052332fe4a8b41558d59b8fbd, type: 2}
      propertyPath: m_LocalPosition.x
      value: 0
      objectReference: {fileID: 0}
    - target: {fileID: 4586936698077412, guid: 9f41469052332fe4a8b41558d59b8fbd, type: 2}
      propertyPath: m_LocalPosition.y
      value: 0
      objectReference: {fileID: 0}
    - target: {fileID: 4586936698077412, guid: 9f41469052332fe4a8b41558d59b8fbd, type: 2}
      propertyPath: m_LocalPosition.z
      value: 0
      objectReference: {fileID: 0}
    - target: {fileID: 4586936698077412, guid: 9f41469052332fe4a8b41558d59b8fbd, type: 2}
      propertyPath: m_LocalRotation.x
      value: -0
      objectReference: {fileID: 0}
    - target: {fileID: 4586936698077412, guid: 9f41469052332fe4a8b41558d59b8fbd, type: 2}
      propertyPath: m_LocalRotation.y
      value: -0
      objectReference: {fileID: 0}
    - target: {fileID: 4586936698077412, guid: 9f41469052332fe4a8b41558d59b8fbd, type: 2}
      propertyPath: m_LocalRotation.z
      value: -0
      objectReference: {fileID: 0}
    - target: {fileID: 4586936698077412, guid: 9f41469052332fe4a8b41558d59b8fbd, type: 2}
      propertyPath: m_LocalRotation.w
      value: 1
      objectReference: {fileID: 0}
    - target: {fileID: 4586936698077412, guid: 9f41469052332fe4a8b41558d59b8fbd, type: 2}
      propertyPath: m_RootOrder
      value: 1
      objectReference: {fileID: 0}
    - target: {fileID: 223435208342253048, guid: 9f41469052332fe4a8b41558d59b8fbd,
        type: 2}
      propertyPath: m_Camera
      value: 
      objectReference: {fileID: 256892404}
    - target: {fileID: 1978808683707664, guid: 9f41469052332fe4a8b41558d59b8fbd, type: 2}
      propertyPath: m_IsActive
      value: 0
      objectReference: {fileID: 0}
    m_RemovedComponents: []
  m_ParentPrefab: {fileID: 100100000, guid: 9f41469052332fe4a8b41558d59b8fbd, type: 2}
  m_IsPrefabParent: 0
