%YAML 1.1
%TAG !u! tag:unity3d.com,2011:
--- !u!114 &11400000
MonoBehaviour:
  m_ObjectHideFlags: 0
  m_PrefabParentObject: {fileID: 0}
  m_PrefabInternal: {fileID: 0}
  m_GameObject: {fileID: 0}
  m_Enabled: 1
  m_EditorHideFlags: 0
  m_Script: {fileID: 11500000, guid: 44bdc45c6f277994392f969d6d71eddd, type: 3}
  m_Name: FootSteps
  m_EditorClassIdentifier: 
  _type: 0
  source: {fileID: 8300000, guid: ba8b69b4dfdbe0e43907328555056e7a, type: 3}
  _relativeVolume: 1
  _enabled: 1
