%YAML 1.1
%TAG !u! tag:unity3d.com,2011:
--- !u!114 &11400000
MonoBehaviour:
  m_ObjectHideFlags: 0
  m_PrefabParentObject: {fileID: 0}
  m_PrefabInternal: {fileID: 0}
  m_GameObject: {fileID: 0}
  m_Enabled: 1
  m_EditorHideFlags: 0
  m_Script: {fileID: 11500000, guid: 8a1fb5c8cef375643a9591daa8b5df21, type: 3}
  m_Name: Stage3
  m_EditorClassIdentifier: 
  _outcomeOne: {fileID: 114144649777681518, guid: f52a895a0c849a946aa622b8075a3cbf,
    type: 2}
  _outcomeTwo: {fileID: 114631181221455064, guid: 85c0a59d4c814c24e87f6747d1b6734a,
    type: 2}
  _outcomeThree: {fileID: 0}
