%YAML 1.1
%TAG !u! tag:unity3d.com,2011:
--- !u!114 &11400000
MonoBehaviour:
  m_ObjectHideFlags: 0
  m_PrefabParentObject: {fileID: 0}
  m_PrefabInternal: {fileID: 0}
  m_GameObject: {fileID: 0}
  m_Enabled: 1
  m_EditorHideFlags: 0
  m_Script: {fileID: 11500000, guid: 8a1fb5c8cef375643a9591daa8b5df21, type: 3}
  m_Name: Stage7
  m_EditorClassIdentifier: 
  _outcomeOne: {fileID: 114352433800047590, guid: c8649234c3ac03d419aa93561511c725,
    type: 2}
  _outcomeTwo: {fileID: 114357778261546434, guid: 59d82dcdae31eeb4984eca22bff2f349,
    type: 2}
  _outcomeThree: {fileID: 114906165976849146, guid: 8804c90d717cf7d4ab0b3c5f5c1bb032,
    type: 2}
