%YAML 1.1
%TAG !u! tag:unity3d.com,2011:
--- !u!114 &11400000
MonoBehaviour:
  m_ObjectHideFlags: 0
  m_PrefabParentObject: {fileID: 0}
  m_PrefabInternal: {fileID: 0}
  m_GameObject: {fileID: 0}
  m_Enabled: 1
  m_EditorHideFlags: 0
  m_Script: {fileID: 11500000, guid: 8a1fb5c8cef375643a9591daa8b5df21, type: 3}
  m_Name: Stage2
  m_EditorClassIdentifier: 
  _backgroundSprite: {fileID: 21300000, guid: 90d98ffc669da874fb7a57f8565e5b9a, type: 3}
  _outcomeOne: {fileID: 114921502576877834, guid: 9f41469052332fe4a8b41558d59b8fbd,
    type: 2}
  _outcomeTwo: {fileID: 0}
  _outcomeThree: {fileID: 0}
